<svg width="1440" height="1800" viewBox="0 0 1440 1800" fill="none" xmlns="http://www.w3.org/2000/svg">
<g clip-path="url(#clip0)">
<rect width="1440" height="1800" fill="#FEC513"/>
<g filter="url(#filter0_d)">
<path d="M781.03 464C783.455 181.364 1189.22 202.098 1439.53 193V1287C1330.92 1275.63 1192.79 1171 1108.53 994.5C1003.2 773.88 777.999 817.295 781.03 464Z" fill="#E93C2B"/>
</g>
<g filter="url(#filter1_d)">
<path d="M325.5 463.792C257.1 346.592 110.167 355.626 -21 367.792V1012.29C198.833 960.292 693.6 847.892 686 734.292C676.5 592.292 411 610.292 325.5 463.792Z" fill="#148059"/>
</g>
</g>
<defs>
<filter id="filter0_d" x="777" y="193" width="666.53" height="1102" filterUnits="userSpaceOnUse" color-interpolation-filters="sRGB">
<feFlood flood-opacity="0" result="BackgroundImageFix"/>
<feColorMatrix in="SourceAlpha" type="matrix" values="0 0 0 0 0 0 0 0 0 0 0 0 0 0 0 0 0 0 127 0"/>
<feOffset dy="4"/>
<feGaussianBlur stdDeviation="2"/>
<feColorMatrix type="matrix" values="0 0 0 0 0 0 0 0 0 0 0 0 0 0 0 0 0 0 0.25 0"/>
<feBlend mode="normal" in2="BackgroundImageFix" result="effect1_dropShadow"/>
<feBlend mode="normal" in="SourceGraphic" in2="effect1_dropShadow" result="shape"/>
</filter>
<filter id="filter1_d" x="-25" y="361" width="715.087" height="659.292" filterUnits="userSpaceOnUse" color-interpolation-filters="sRGB">
<feFlood flood-opacity="0" result="BackgroundImageFix"/>
<feColorMatrix in="SourceAlpha" type="matrix" values="0 0 0 0 0 0 0 0 0 0 0 0 0 0 0 0 0 0 127 0"/>
<feOffset dy="4"/>
<feGaussianBlur stdDeviation="2"/>
<feColorMatrix type="matrix" values="0 0 0 0 0 0 0 0 0 0 0 0 0 0 0 0 0 0 0.25 0"/>
<feBlend mode="normal" in2="BackgroundImageFix" result="effect1_dropShadow"/>
<feBlend mode="normal" in="SourceGraphic" in2="effect1_dropShadow" result="shape"/>
</filter>
<clipPath id="clip0">
<rect width="1440" height="1800" fill="white"/>
</clipPath>
</defs>
</svg>
